…
cellnumbers(rastercano, as(polycano[4:5, ], "SpatialLinesDataFrame"))
#> Warning in cellnumbers(rastercano, as(polycano[4:5, ], "SpatialLinesDataFrame")): projections not the same 
#>     x: NA
#> query: NA
#> # A tibble: 235 x 2
#>    object_ cell_
#>      <chr> <dbl>
#>  1       1  1129
#>  2       1  1190
#>  3       1  1251
#>  4       2     1
#>  5       2     2
#>  6       2     3
#>  7       2     4
#>  8       2     5
#>  9       2     6
#> 10       2     7
#> # ... with 225 more rows
cellnumbers(rastercano, as(as(polycano[4:5, ], "SpatialLinesDataFrame"), "SpatialPointsDataFrame"))
#> Warning in cellnumbers(rastercano, as(as(polycano[4:5, ], "SpatialLinesDataFrame"), : projections not the same 
#>     x: NA
#> query: NA
#> # A tibble: 331 x 2
#>    object_ cell_
#>      <chr> <dbl>
#>  1       1  1129
#>  2       2  1129
#>  3       3  1251
#>  4       4  1251
#>  5       5  1129
#>  6       6  1098
#>  7       7  1098
#>  8       8  1098
#>  9       9  1098
#> 10      10  1037
#> # ... with 321 more rows
…
