Convert a Raster to a data frame. — as_tibble • tabularaster
…
    Details

    If the raster has only one layer, the slice index is not added. Use 'dim = FALSE' to not include
the slice index value.

    Examples

## basic data frame version of a basic raster
as_tibble(raster::raster(volcano))

#> Registered S3 method overwritten by 'cli':
#>   method     from         
#>   print.boxx spatstat.geom
#> # A tibble: 5,307 x 2
#>    cellvalue cellindex
#>        <dbl>     <int>
#>  1       100         1
#>  2       100         2
#>  3       101         3
#>  4       101         4
#>  5       101         5
#>  6       101         6
#>  7       101         7
#>  8       100         8
#>  9       100         9
#> 10       100        10
#> # … with 5,297 more rows

## data frame with time column since raster has that set
r <- raster::raster(volcano)
br <- raster::brick(r, r)
as_tibble(raster::setZ(br, Sys.Date() + 1:2), cell = TRUE)

#> # A tibble: 10,614 x 3
#>    cellvalue cellindex dimindex  
#>        <dbl>     <int> <date>    
#>  1       100         1 2021-03-09
#>  2       100         2 2021-03-09
#>  3       101         3 2021-03-09
#>  4       101         4 2021-03-09
#>  5       101         5 2021-03-09
#>  6       101         6 2021-03-09
#>  7       101         7 2021-03-09
#>  8       100         8 2021-03-09
#>  9       100         9 2021-03-09
#> 10       100        10 2021-03-09
#> # … with 10,604 more rows
…
