Extract cell numbers from a Raster object. — cellnumbers • tabularaster
…
library(dplyr)
#> 
#> Attaching package: ‘dplyr’
#> The following objects are masked from ‘package:raster’:
#> 
#>     intersect, select, union
#> The following objects are masked from ‘package:stats’:
#> 
#>     filter, lag
#> The following objects are masked from ‘package:base’:
#> 
#>     intersect, setdiff, setequal, union
r <- raster(volcano) %>% aggregate(fact = 4)
cellnumbers(r, rasterToContour(r, level = 120))
#> # A tibble: 64 x 2
#>    object_ cell_
#>      <int> <int>
#>  1       1     8
#>  2       1     9
#>  3       1    10
#>  4       1    11
#>  5       1    21
#>  6       1    22
#>  7       1    23
#>  8       1    24
#>  9       1    27
#> 10       1    28
#> # … with 54 more rows
…
