Tools for Rasters as Tidy Data • tabularaster
…
library(dplyr)
#> 
#> Attaching package: 'dplyr'
#> The following objects are masked from 'package:raster':
#> 
#>     intersect, select, union
#> The following objects are masked from 'package:stats':
#> 
#>     filter, lag
#> The following objects are masked from 'package:base':
#> 
#>     intersect, setdiff, setequal, union
as_tibble(r)
#> # A tibble: 5,307 x 2
#>    cellvalue cellindex
#>        <dbl>     <int>
#>  1       100         1
#>  2       100         2
#>  3       101         3
#>  4       101         4
#>  5       101         5
#>  6       101         6
#>  7       101         7
#>  8       100         8
#>  9       100         9
#> 10       100        10
#> # ... with 5,297 more rows
b <- brick(r, r*2)
as_tibble(b)
#> # A tibble: 10,614 x 3
#>    cellvalue cellindex dimindex
#>        <dbl>     <int>    <int>
#>  1       100         1        1
#>  2       100         2        1
#>  3       101         3        1
#>  4       101         4        1
#>  5       101         5        1
#>  6       101         6        1
#>  7       101         7        1
#>  8       100         8        1
#>  9       100         9        1
#> 10       100        10        1
#> # ... with 10,604 more rows
as_tibble(b, cell = FALSE) %>% arrange(desc(dimindex)) ## leave out the cell index
#> # A tibble: 10,614 x 2
#>    cellvalue dimindex
#>        <dbl>    <int>
#>  1       200        2
#>  2       200        2
#>  3       202        2
#>  4       202        2
#>  5       202        2
#>  6       202        2
#>  7       202        2
#>  8       200        2
#>  9       200        2
#> 10       200        2
#> # ... with 10,604 more rows

The date or date-time is used as the dimension index if present.

btime <- setZ(b, Sys.time() + c(1, 10))
as_tibble(btime) %>% group_by(dimindex) %>% summarize(n = n())
#> # A tibble: 2 x 2
#>              dimindex     n
#>                <dttm> <int>
#> 1 2017-06-14 21:39:13  5307
#> 2 2017-06-14 21:39:22  5307

as_tibble(btime, split_date = TRUE)
#> # A tibble: 10,614 x 5
#>    cellvalue cellindex  year month   day
#>        <dbl>     <int> <int> <int> <int>
#>  1       100         1  2017     6    14
#>  2       100         2  2017     6    14
#>  3       101         3  2017     6    14
#>  4       101         4  2017     6    14
#>  5       101         5  2017     6    14
#>  6       101         6  2017     6    14
#>  7       101         7  2017     6    14
#>  8       100         8  2017     6    14
#>  9       100         9  2017     6    14
#> 10       100        10  2017     6    14
#> # ... with 10,604 more rows
…
# Create two polygons
cds1 <- rbind(c(-180,-20), c(-160,5), c(-60, 0), c(-160,-60), c(-180,-20))
cds2 <- rbind(c(80,0), c(100,60), c(120,0), c(120,-55), c(80,0))
polys <- SpatialPolygonsDataFrame(SpatialPolygons(list(Polygons(list(Polygon(cds1)), 1), 
                                                       Polygons(list(Polygon(cds2)), 2))),data.frame(ID=c(1,2)))

## do extraction in abstract terms
(cn <- cellnumbers(r, polys))
#> Warning: projections not the same 
#>     x: +proj=longlat +datum=WGS84 +ellps=WGS84 +towgs84=0,0,0
#> query: NA
#> # A tibble: 63 x 2
#>    object_ cell_
#>      <int> <dbl>
#>  1       1   326
#>  2       1   327
#>  3       1   328
#>  4       1   329
#>  5       1   330
#>  6       1   331
#>  7       1   332
#>  8       1   333
#>  9       1   334
#> 10       1   335
#> # ... with 53 more rows
…
library(tabularaster)
library(raster)
library(dplyr)
data("rastercano")
data("polycano")
cells <- cellnumbers(rastercano, polycano[4:5, ])
#> Warning: projections not the same 
#>     x: NA
#> query: NA

cellnumbers(rastercano, as(polycano[4:5, ], "SpatialLinesDataFrame"))
#> Warning: projections not the same 
#>     x: NA
#> query: NA
#> # A tibble: 235 x 2
#>    object_ cell_
#>      <int> <dbl>
#>  1       1  1129
#>  2       1  1190
#>  3       1  1251
#>  4       2     1
#>  5       2     2
#>  6       2     3
#>  7       2     4
#>  8       2     5
#>  9       2     6
#> 10       2     7
#> # ... with 225 more rows
cellnumbers(rastercano, as(as(polycano[4:5, ], "SpatialLinesDataFrame"), "SpatialPointsDataFrame"))
#> Warning: projections not the same 
#>     x: NA
#> query: NA
#> # A tibble: 331 x 2
#>    object_ cell_
#>      <int> <dbl>
#>  1       1  1129
#>  2       1  1129
#>  3       1  1251
#>  4       1  1251
#>  5       1  1129
#>  6       1  1098
#>  7       1  1098
#>  8       1  1098
#>  9       1  1098
#> 10       1  1037
#> # ... with 321 more rows
…
#> Warning in if (class(x) == "character") {: the condition has length > 1 and
#> only the first element will be used
#> class       : RasterLayer 
#> dimensions  : 100, 140, 14000  (nrow, ncol, ncell)
#> resolution  : 0.06333482, 0.02707657  (x, y)
#> extent      : -84.32385, -75.45698, 33.88199, 36.58965  (xmin, xmax, ymin, ymax)
#> coord. ref. : NA

## index the raster with the sf layer
(cn <- cellnumbers(grid, poly))
#> Warning: projections not the same 
#>     x: NA
#> query: +proj=longlat +datum=NAD27 +no_defs +ellps=clrk66 +nadgrids=@conus,@alaska,@ntv2_0.gsb,@ntv1_can.dat
#> # A tibble: 7,233 x 2
#>    object_ cell_
#>      <int> <dbl>
#>  1       1    43
#>  2       1    44
#>  3       1    45
#>  4       1    46
#>  5       1   183
#>  6       1   184
#>  7       1   185
#>  8       1   186
#>  9       1   187
#> 10       1   322
#> # ... with 7,223 more rows
…
