Using abularaster • tabularaster
…
## The following objects are masked from 'package:raster':
## 
##     intersect, select, union

## The following objects are masked from 'package:stats':
## 
##     filter, lag

## The following objects are masked from 'package:base':
## 
##     intersect, setdiff, setequal, union

as_tibble(r)

## # A tibble: 5,307 × 2
##    cellvalue cellindex
##        <dbl>     <int>
##  1       100         1
##  2       100         2
##  3       101         3
##  4       101         4
##  5       101         5
##  6       101         6
##  7       101         7
##  8       100         8
##  9       100         9
## 10       100        10
## # … with 5,297 more rows

b <- brick(r, r*2)
as_tibble(b)

## # A tibble: 10,614 × 3
##    cellvalue cellindex dimindex
##        <dbl>     <int>    <int>
##  1       100         1        1
##  2       100         2        1
##  3       101         3        1
##  4       101         4        1
##  5       101         5        1
##  6       101         6        1
##  7       101         7        1
##  8       100         8        1
##  9       100         9        1
## 10       100        10        1
## # … with 10,604 more rows

as_tibble(b, cell = FALSE) %>% arrange(desc(dimindex)) ## leave out the cell index

## # A tibble: 10,614 × 2
##    cellvalue dimindex
##        <dbl>    <int>
##  1       200        2
##  2       200        2
##  3       202        2
##  4       202        2
##  5       202        2
##  6       202        2
##  7       202        2
##  8       200        2
##  9       200        2
## 10       200        2
## # … with 10,604 more rows

The date or date-time is used as the dimension index if present.

btime <- raster::setZ(b, Sys.time() + c(1, 10))
as_tibble(btime) %>% group_by(dimindex) %>% summarize(n = n())

## # A tibble: 2 × 2
##   dimindex                n
##   <dttm>              <int>
## 1 2022-10-17 23:12:43  5307
## 2 2022-10-17 23:12:52  5307

as_tibble(btime, split_date = TRUE)

## # A tibble: 10,614 × 3
##    cellvalue cellindex dimindex           
##        <dbl>     <int> <dttm>             
##  1       100         1 2022-10-17 23:12:43
##  2       100         2 2022-10-17 23:12:43
##  3       101         3 2022-10-17 23:12:43
##  4       101         4 2022-10-17 23:12:43
##  5       101         5 2022-10-17 23:12:43
##  6       101         6 2022-10-17 23:12:43
##  7       101         7 2022-10-17 23:12:43
##  8       100         8 2022-10-17 23:12:43
##  9       100         9 2022-10-17 23:12:43
## 10       100        10 2022-10-17 23:12:43
## # … with 10,604 more rows
…
## do extraction in abstract terms
(cn <- cellnumbers(r, polys))

## projections not the same 
##     x: +proj=longlat +datum=WGS84
## query: NAFALSE

## cellnumbers is very slow for SpatialPolygons, consider conversion with 'sf::st_as_sf'

## # A tibble: 63 × 2
##    object_ cell_
##      <int> <dbl>
##  1       1   326
##  2       1   327
##  3       1   328
##  4       1   329
##  5       1   330
##  6       1   331
##  7       1   332
##  8       1   333
##  9       1   334
## 10       1   335
## # … with 53 more rows
…
## projections not the same 
##     x: NA
## query: NAFALSE

## cellnumbers is very slow for SpatialPolygons, consider conversion with 'sf::st_as_sf'

cellnumbers(rastercano, as(polycano[4:5, ], "SpatialLinesDataFrame"))

## # A tibble: 305 × 2
##    object_ cell_
##      <int> <int>
##  1       1  1129
##  2       1  1190
##  3       1  1251
##  4       2     1
##  5       2     2
##  6       2     3
##  7       2     4
##  8       2     5
##  9       2     6
## 10       2     7
## # … with 295 more rows

cellnumbers(rastercano, as(as(polycano[4:5, ], "SpatialLinesDataFrame"), "SpatialPointsDataFrame"))

## projections not the same 
##     x: NA
## query: NAFALSE

## # A tibble: 331 × 2
##    object_ cell_
##      <int> <dbl>
##  1       1  1129
##  2       2  1129
##  3       3  1251
##  4       4  1251
##  5       5  1129
##  6       6  1098
##  7       7  1098
##  8       8  1098
##  9       9  1098
## 10      10  1037
## # … with 321 more rows
…
